motor[rightMotor] = 0;
motor[leftMotor] = 0;
wait1Msec(250);
motor[rightMotor] = 128;
motor[leftMotor] = 128;
wait1Msec(250);
motor[rightMotor] = 128;
motor[leftMotor] = 128;
wait1Msec(250);
motor[rightMotor] = 128;
motor[leftMotor] = 128;
wait1Msec(250);
motor[rightMotor] = 128;
motor[leftMotor] = 128;
wait1Msec(250);
motor[rightMotor] = 128;
motor[leftMotor] = 128;
wait1Msec(250);
motor[rightMotor] = 128;
motor[leftMotor] = 128;
wait1Msec(250);
motor[rightMotor] = 128;
motor[leftMotor] = 128;
wait1Msec(250);
motor[rightMotor] = 0;
motor[leftMotor] = 0;
wait1Msec(250);
motor[rightMotor] = 0;
motor[leftMotor] = 0;
wait1Msec(250);
motor[rightMotor] = 13;
motor[leftMotor] = 52;
wait1Msec(250);
motor[rightMotor] = 0;
motor[leftMotor] = 0;
wait1Msec(250);
motor[rightMotor] = 0;
motor[leftMotor] = 0;
wait1Msec(250);
motor[rightMotor] = 128;
motor[leftMotor] = 60;
wait1Msec(250);
motor[rightMotor] = 0;
motor[leftMotor] = 0;
wait1Msec(250);
motor[rightMotor] = 58;
motor[leftMotor] = -118;
wait1Msec(250);
motor[rightMotor] = 119;
motor[leftMotor] = -103;
wait1Msec(250);
motor[rightMotor] = 0;
motor[leftMotor] = 0;
wait1Msec(250);
motor[rightMotor] = 18;
motor[leftMotor] = 128;
wait1Msec(250);
motor[rightMotor] = 0;
motor[leftMotor] = 0;
wait1Msec(250);
motor[rightMotor] = 127;
motor[leftMotor] = -65;
wait1Msec(250);
motor[rightMotor] = 0;
motor[leftMotor] = 0;
wait1Msec(250);
motor[rightMotor] = 0;
motor[leftMotor] = 118;
wait1Msec(250);
motor[rightMotor] = 98;
motor[leftMotor] = 25;
wait1Msec(250);
motor[rightMotor] = 11;
motor[leftMotor] = -17;
wait1Msec(250);
motor[rightMotor] = 0;
motor[leftMotor] = 0;
wait1Msec(250);
motor[rightMotor] = 21;
motor[leftMotor] = -55;
wait1Msec(250);
motor[rightMotor] = 23;
motor[leftMotor] = -29;
wait1Msec(250);
motor[rightMotor] = 0;
motor[leftMotor] = 0;
wait1Msec(250);
motor[rightMotor] = 88;
motor[leftMotor] = 0;
wait1Msec(250);
motor[rightMotor] = 0;
motor[leftMotor] = 0;
wait1Msec(250);
motor[rightMotor] = 0;
motor[leftMotor] = 0;
wait1Msec(250);
motor[rightMotor] = 87;
motor[leftMotor] = -127;
wait1Msec(250);
motor[rightMotor] = 0;
motor[leftMotor] = 0;
wait1Msec(250);
motor[rightMotor] = 0;
motor[leftMotor] = 16;
wait1Msec(250);
motor[rightMotor] = 128;
motor[leftMotor] = 128;
wait1Msec(250);
motor[rightMotor] = 128;
motor[leftMotor] = 68;
wait1Msec(250);
motor[rightMotor] = 128;
motor[leftMotor] = 68;
wait1Msec(250);
motor[rightMotor] = 22;
motor[leftMotor] = -110;
wait1Msec(250);
motor[rightMotor] = 71;
motor[leftMotor] = -73;
wait1Msec(250);
motor[rightMotor] = 128;
motor[leftMotor] = -66;
wait1Msec(250);
motor[rightMotor] = 0;
motor[leftMotor] = 43;
wait1Msec(250);
motor[rightMotor] = 0;
motor[leftMotor] = 51;
wait1Msec(250);
motor[rightMotor] = 57;
motor[leftMotor] = 24;
wait1Msec(250);
motor[rightMotor] = 0;
motor[leftMotor] = 0;
wait1Msec(250);
motor[rightMotor] = 123;
motor[leftMotor] = 128;
wait1Msec(250);
motor[rightMotor] = 128;
motor[leftMotor] = 128;
wait1Msec(250);
motor[rightMotor] = 128;
motor[leftMotor] = 128;
wait1Msec(250);
motor[rightMotor] = 128;
motor[leftMotor] = 128;
wait1Msec(250);
motor[rightMotor] = 16;
motor[leftMotor] = 16;
wait1Msec(250);
motor[rightMotor] = 0;
motor[leftMotor] = 0;
wait1Msec(250);
motor[rightMotor] = 0;
motor[leftMotor] = 0;
wait1Msec(250);
motor[rightMotor] = 0;
motor[leftMotor] = 0;
wait1Msec(250);
motor[rightMotor] = 0;
motor[leftMotor] = 0;
wait1Msec(250);
motor[rightMotor] = 0;
motor[leftMotor] = 0;
wait1Msec(250);
motor[rightMotor] = 0;
motor[leftMotor] = 0;
wait1Msec(250);
motor[rightMotor] = 0;
motor[leftMotor] = 0;
wait1Msec(250);
